<?xml version="1.0" encoding="UTF-8"?>
<!DOCTYPE svg PUBLIC "-//W3C//DTD SVG 1.1//EN" "http://www.w3.org/Graphics/SVG/1.1/DTD/svg11.dtd">
<svg version="1.1" xmlns="http://www.w3.org/2000/svg" xmlns:xlink="http://www.w3.org/1999/xlink" x="0" y="0" width="70%" height="100" viewBox="0, 0, 480, 170">
  <g id="Layer_1">
    <g>
      <path d="M37,26.5 L444,26.5 C450.627,26.5 456,31.873 456,38.5 L456,132.5 C456,139.127 450.627,144.5 444,144.5 L37,144.5 C30.373,144.5 25,139.127 25,132.5 L25,38.5 C25,31.873 30.373,26.5 37,26.5 z" fill="#FFFFFF"/>
      <path d="M37,26.5 L444,26.5 C450.627,26.5 456,31.873 456,38.5 L456,132.5 C456,139.127 450.627,144.5 444,144.5 L37,144.5 C30.373,144.5 25,139.127 25,132.5 L25,38.5 C25,31.873 30.373,26.5 37,26.5 z" fill-opacity="0" stroke="#00C900" stroke-width="9"/>
    </g>
    <g>
      <path d="M30,33.5 L321,33.5 L321,138.5 L30,138.5 L30,33.5 z" fill="#00C900"/>
      <path d="M30,33.5 L321,33.5 L321,138.5 L30,138.5 L30,33.5 z" fill-opacity="0" stroke="#00C900" stroke-width="9"/>
    </g>
    <text transform="matrix(1, 0, 0, 1, 175, 85)">
      <tspan x="-60.871" y="21" font-family="GothamHTF-Bold" font-size="58" fill="#FFFFFF">78%</tspan>
    </text>
  </g>
</svg>
